…
The assignment asked several questions about how many steps the individual took daily. Many health authorities recommend that individuals take 10,000 steps every day and the first set of questions asked to calculate the total number of steps taken daily, the mean and median (middle number) number of steps taken daily and then make a histogram of the results. Because the median is a single number in the exact middle of the daily data, it seems to often represent the person was sitting and eating lunch at noon each day which is most likely why there is not much data there.  


```r
#Calculate total number, mean and median of steps taken per day
DailySteps <- group_by(StepData, as.Date(date)) 
DailySteps <- summarize(DailySteps, eachDay = sum(steps, na.rm = TRUE), 
          eachDayMean = mean(steps, na.rm = TRUE), eachDayMedian = median(steps, na.rm = TRUE))
DailySteps
```

```
## # A tibble: 61 x 4
##    `as.Date(date)` eachDay eachDayMean eachDayMedian
##             <date>   <int>       <dbl>         <dbl>
##  1      2012-10-01       0         NaN            NA
##  2      2012-10-02     126     0.43750             0
##  3      2012-10-03   11352    39.41667             0
##  4      2012-10-04   12116    42.06944             0
##  5      2012-10-05   13294    46.15972             0
##  6      2012-10-06   15420    53.54167             0
##  7      2012-10-07   11015    38.24653             0
##  8      2012-10-08       0         NaN            NA
##  9      2012-10-09   12811    44.48264             0
## 10      2012-10-10    9900    34.37500             0
## # ... with 51 more rows
```
…
##Average Daily Activity Pattern
The assignment asked for an analysis of daily activity. Does this individual take more steps in the morning, midday, or in the evening? It seems that the person usually takes double the steps in early morning than at any other time. The highest two month average step count taken in one five minute interval is 206.17 steps during the 5 Minute Interval #835 out of the total of 2355 intervals. 

```r
#Calculate the average daily activity pattern & which 5 minute interval ID has the highest number of steps
MinuteSteps <- group_by(StepData, interval)
MinuteSteps <- summarise(MinuteSteps, StepsPerInterval = mean(steps, na.rm = TRUE))
MinuteSteps
```

```
## # A tibble: 288 x 2
##    interval StepsPerInterval
##       <int>            <dbl>
##  1        0        1.7169811
##  2        5        0.3396226
##  3       10        0.1320755
##  4       15        0.1509434
##  5       20        0.0754717
##  6       25        2.0943396
##  7       30        0.5283019
##  8       35        0.8679245
##  9       40        0.0000000
## 10       45        1.4716981
## # ... with 278 more rows
```
…
```r
#Calculate sum, mean, and median for data with NAs replaced
NoBlankData1 <- NoBlankData %>% replace_na(list(steps = MinuteSteps$StepsPerInterval))
NoBlankSteps <- group_by(NoBlankData1, as.Date(date)) 
NoBlankSteps <- summarize(NoBlankSteps, NoBlankDay = sum(steps, na.rm = TRUE), 
                        NoBlankDayMean = mean(steps, na.rm = TRUE), NoBlankDayMedian = median(steps, na.rm = TRUE))
NoBlankSteps
```

```
## # A tibble: 61 x 4
##    `as.Date(date)` NoBlankDay NoBlankDayMean NoBlankDayMedian
##             <date>      <dbl>          <dbl>            <dbl>
##  1      2012-10-01   10766.19       37.38260         34.11321
##  2      2012-10-02     126.00        0.43750          0.00000
##  3      2012-10-03   11352.00       39.41667          0.00000
##  4      2012-10-04   12116.00       42.06944          0.00000
##  5      2012-10-05   13294.00       46.15972          0.00000
##  6      2012-10-06   15420.00       53.54167          0.00000
##  7      2012-10-07   11015.00       38.24653          0.00000
##  8      2012-10-08   10766.19       37.38260         34.11321
##  9      2012-10-09   12811.00       44.48264          0.00000
## 10      2012-10-10    9900.00       34.37500          0.00000
## # ... with 51 more rows
```
…
